[{
    "id": "f2361ee9-f397-4ed2-bc6b-dc36d1681962",
    "name": "Bijender Singh",
    "plan": "free",
    "address": "87/1 Krishna Nagar, Lane No3 & 4, SJE ND - 110029",
    "mobilenumber": "8447473921",
    "city": "New Delhi",
    "state": "Delhi",
    "country": "India",
    "zip_code": "110029",
    "gender": "Male",
    "created_at": "",
    "updated_at": ""
}]