{
  "development": {
    "username": "gangwdoa_rentApp",
    "password": "gangwdoa_rentApp",
    "database": "gangwdoa_rentApp",
    "host": "127.0.0.1",
    "port": "3307",
    "dialect": "mysql",
    "dialectOptions": {
      "connectTimeout": 60000
    }
  },
  "test": {
    "username": "gangwdoa_rentApp",
    "password": "gangwdoa_rentApp",
    "database": "gangwdoa_rentApp",
    "host": "127.0.0.1",
    "dialect": "mysql"
  },
  "production": {
    "username": "gangwdoa_rentApp",
    "password": "gangwdoa_rentApp",
    "database": "gangwdoa_rentApp",
    "host": "127.0.0.1",
    "dialect": "mysql"
  },
  "secretKey": "gangarent_gangacottage",
  "STRIPE_SECRET_KEY": "",
  "accessKeyId": "AKIA3RSEZJD57CJZSYN7",
  "secretAccessKey": "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",
  "region": "ap-south-1",
  "version":"latest"
}
